CLF & TP & FP & TN & FN & TPR & FPR & MCC \ 
RF & 133 & 29 & 41330 & 163 & 0.4493 & 0.0007 & 0.6054 \\
kNN & 171 & 81 & 41278 & 125 & 0.5777 & 0.002 & 0.6237 \\
LGBM & 191 & 41 & 41318 & 105 & 0.6453 & 0.001 & 0.7272 \\
DT & 175 & 115 & 41244 & 121 & 0.5912 & 0.0028 & 0.5944 \\
LR & 4 & 1 & 41358 & 292 & 0.0135 & 0.0 & 0.1034 \\
AB & 144 & 70 & 41289 & 152 & 0.4865 & 0.0017 & 0.5696 \\
NB & 33 & 797 & 40562 & 263 & 0.1115 & 0.0193 & 0.0554 \\
